…
``` r
diamonds3 <- diamonds2 %>% 
   mutate(OriginalPred = predict(noCOVmodel), 
          WithCaratPred = predict(COVmodel), 
          CaratOnlyPred = predict(caratonly)) %>% 
   select(price, cut, color, OriginalPred, carat, CaratOnlyPred, WithCaratPred)
diamonds3
```

    ## # A tibble: 1,308 x 7
    ##    price cut   color OriginalPred carat CaratOnlyPred WithCaratPred
    ##    <int> <ord> <ord>        <dbl> <dbl>         <dbl>         <dbl>
    ##  1  3294 Fair  E            3406.  1.01         4850.         4743.
    ##  2   829 Fair  E            3406.  0.47         1030.          848.
    ##  3   813 Fair  E            3406.  0.4           535.          343.
    ##  4   828 Fair  E            3406.  0.47         1030.          848.
    ##  5  1950 Fair  E            3406.  0.5          1242.         1064.
    ##  6   851 Fair  E            3406.  0.5          1242.         1064.
    ##  7  2788 Fair  E            3406.  1.01         4850.         4743.
    ##  8  4077 Fair  E            3406.  1            4779.         4671.
    ##  9   945 Fair  E            3406.  0.3          -172.         -379.
    ## 10  7468 Fair  E            3406.  1.51         8387.         8350.
    ## # … with 1,298 more rows
…
